[{
  "price": "$410.000.000",
  "size": "119.0 m2",
  "rooms": "3",
  "bathrooms": "3",
  "garages": "2"
}, {
  "price": "$400.000.000",
  "size": "92.0 m2",
  "rooms": "3",
  "bathrooms": "3",
  "garages": "2"
}, {
  "price": "$350.000.000",
  "size": "77.0 m2",
  "rooms": "2",
  "bathrooms": "2",
  "garages": "1"
}, {
  "price": "$594.000.000",
  "size": "93.0 m2",
  "rooms": "3",
  "bathrooms": "3",
  "garages": "2"
}, {
  "price": "$4.500.000.000",
  "size": "469.0 m2",
  "rooms": "4",
  "bathrooms": "5",
  "garages": "4"
}, {
  "price": "$457.000.000",
  "size": "120.0 m2",
  "rooms": "3",
  "bathrooms": "2",
  "garages": "2"
}, {
  "price": "$618.000.000",
  "size": "92.0 m2",
  "rooms": "3",
  "bathrooms": "3",
  "garages": "2"
}, {
  "price": "$643.000.000",
  "size": "93.0 m2",
  "rooms": "3",
  "bathrooms": "3",
  "garages": "2"
}, {
  "price": "$250.000.000",
  "size": "50.0 m2",
  "rooms": "1",
  "bathrooms": "2",
  "garages": "1"
}, {
  "price": "$329.000.000",
  "size": "103.0 m2",
  "rooms": "3",
  "bathrooms": "3",
  "garages": "1"
}, {
  "price": "$699.000.000",
  "size": "110.0 m2",
  "rooms": "3",
  "bathrooms": "3",
  "garages": "2"
}, {
  "price": "$370.000.000",
  "size": "72.0 m2",
  "rooms": "2",
  "bathrooms": "2",
  "garages": "2"
}, {
  "price": "$370.000.000",
  "size": "58.0 m2",
  "rooms": "2",
  "bathrooms": "2",
  "garages": "1"
}, {
  "price": "$583.000.000",
  "size": "92.0 m2",
  "rooms": "3",
  "bathrooms": "3",
  "garages": "2"
}, {
  "price": "$4.500.000.000",
  "size": "469.0 m2",
  "rooms": "4",
  "bathrooms": "5",
  "garages": "4"
}, {
  "price": "$520.000.000",
  "size": "80.0 m2",
  "rooms": "2",
  "bathrooms": "3",
  "garages": "2"
}, {
  "price": "$603.000.000",
  "size": "93.0 m2",
  "rooms": "3",
  "bathrooms": "3",
  "garages": "2"
}, {
  "price": "$495.000.000",
  "size": "116.0 m2",
  "rooms": "3",
  "bathrooms": "3",
  "garages": "1"
}, {
  "price": "$410.000.000",
  "size": "85.0 m2",
  "rooms": "3",
  "bathrooms": "3",
  "garages": "2"
}, {
  "price": "$420.000.000",
  "size": "70.0 m2",
  "rooms": "2",
  "bathrooms": "3",
  "garages": "1"
}, {
  "price": "$312.000.000",
  "size": "48.5 m2",
  "rooms": "1",
  "bathrooms": "2",
  "garages": "1"
}, {
  "price": "$420.000.000",
  "size": "86.0 m2",
  "rooms": "2",
  "bathrooms": "2",
  "garages": "2"
}, {
  "price": "$425.000.000",
  "size": "104.0 m2",
  "rooms": "3",
  "bathrooms": "2",
  "garages": "2"
}, {
  "price": "$640.000.000",
  "size": "135.0 m2",
  "rooms": "3",
  "bathrooms": "4",
  "garages": "2"
}, {
  "price": "$535.000.000",
  "size": "114.0 m2",
  "rooms": "3",
  "bathrooms": "3",
  "garages": "2"
}, {
  "price": "$310.000.000",
  "size": "56.0 m2",
  "rooms": "1",
  "bathrooms": "2",
  "garages": "1"
}, {
  "price": "$400.000.000",
  "size": "87.0 m2",
  "rooms": "2",
  "bathrooms": "2",
  "garages": "1"
}, {
  "price": "$395.000.000",
  "size": "80.0 m2",
  "rooms": "2",
  "bathrooms": "2",
  "garages": "1"
}, {
  "price": "$480.000.000",
  "size": "98.0 m2",
  "rooms": "3",
  "bathrooms": "3",
  "garages": "3"
}, {
  "price": "$375.000.000",
  "size": "68.0 m2",
  "rooms": "2",
  "bathrooms": "2",
  "garages": "2"
}, {
  "price": "$380.000.000",
  "size": "77.0 m2",
  "rooms": "2",
  "bathrooms": "3",
  "garages": "2"
}, {
  "price": "$720.000.000",
  "size": "148.0 m2",
  "rooms": "4",
  "bathrooms": "3",
  "garages": "3"
}, {
  "price": "$265.000.000",
  "size": "40.0 m2",
  "rooms": "1",
  "bathrooms": "1",
  "garages": "1"
}, {
  "price": "$470.000.000",
  "size": "104.0 m2",
  "rooms": "3",
  "bathrooms": "2",
  "garages": "1"
}, {
  "price": "$480.000.000",
  "size": "98.0 m2",
  "rooms": "3",
  "bathrooms": "3",
  "garages": "3"
}, {
  "price": "$395.000.000",
  "size": "82.0 m2",
  "rooms": "2",
  "bathrooms": "2",
  "garages": "2"
}, {
  "price": "$465.000.000",
  "size": "85.82 m2",
  "rooms": "3",
  "bathrooms": "2",
  "garages": "2"
}, {
  "price": "$405.000.000",
  "size": "110.0 m2",
  "rooms": "3",
  "bathrooms": "2",
  "garages": "2"
}, {
  "price": "$555.000.000",
  "size": "112.0 m2",
  "rooms": "3",
  "bathrooms": "3",
  "garages": "2"
}, {
  "price": "$437.000.000",
  "size": "89.0 m2",
  "rooms": "2",
  "bathrooms": "3",
  "garages": "2"
}, {
  "price": "$585.000.000",
  "size": "118.0 m2",
  "rooms": "3",
  "bathrooms": "3",
  "garages": "2"
}, {
  "price": "$305.000.000",
  "size": "49.0 m2",
  "rooms": "1",
  "bathrooms": "2",
  "garages": "1"
}, {
  "price": "$290.000.000",
  "size": "73.0 m2",
  "rooms": "3",
  "bathrooms": "2",
  "garages": "1"
}, {
  "price": "$290.000.000",
  "size": "57.0 m2",
  "rooms": "2",
  "bathrooms": "2",
  "garages": "1"
}, {
  "price": "$470.000.000",
  "size": "95.8 m2",
  "rooms": "2",
  "bathrooms": "2",
  "garages": "2"
}, {
  "price": "$195.000.000",
  "size": "53.0 m2",
  "rooms": "2",
  "bathrooms": "1",
  "garages": "1"
}, {
  "price": "$650.000.000",
  "size": "190.0 m2",
  "rooms": "3",
  "bathrooms": "4",
  "garages": "2"
}, {
  "price": "$485.000.000",
  "size": "84.0 m2",
  "rooms": "2",
  "bathrooms": "3",
  "garages": "2"
}, {
  "price": "$365.000.000",
  "size": "62.0 m2",
  "rooms": "2",
  "bathrooms": "2",
  "garages": "2"
}, {
  "price": "$270.000.000",
  "size": "62.0 m2",
  "rooms": "2",
  "bathrooms": "2",
  "garages": "1"
}]
